<?xml version="1.0" encoding="utf-8"?>
<svg viewBox="0 0 85 85" xmlns="http://www.w3.org/2000/svg">
  <defs>
    <symbol id="symbol-0" viewBox="0 0 100 100"/>
  </defs>
  <g>
    <path d="M 85 42.5 C 85 65.972 65.972 85 42.5 85 C 19.028 85 0 65.972 0 42.5 C 0 19.028 19.028 0 42.5 0 C 65.972 0 85 19.028 85 42.5 Z M 77.383 20.009 C 69.994 8.571 57.131 1 42.5 1 C 19.58 1 1 19.58 1 42.5 C 1 65.42 19.58 84 42.5 84 C 65.42 84 84 65.42 84 42.5 C 84 34.211 81.57 26.49 77.383 20.009 Z"/>
    <path d="M 80 42.5 C 80 63.211 63.211 80 42.5 80 C 21.789 80 5 63.211 5 42.5 C 5 21.789 21.789 5 42.5 5 C 63.211 5 80 21.789 80 42.5 Z M 42.5 12.5 C 25.931 12.5 12.5 25.931 12.5 42.5 C 12.5 59.069 25.931 72.5 42.5 72.5 C 59.069 72.5 72.5 59.069 72.5 42.5 C 72.5 25.931 59.069 12.5 42.5 12.5 Z"/>
  </g>
</svg>