<?xml version="1.0"?>
<svg xmlns="http://www.w3.org/2000/svg" xmlns:xlink="http://www.w3.org/1999/xlink" version="1.1" id="Capa_1" x="0px" y="0px" viewBox="0 0 512.032 512.032" style="enable-background:new 0 0 512.032 512.032;" xml:space="preserve" width="512px" height="512px" class=""><g><g>
	<g>
		<path d="M256.016,321.632V126.368c-5.536,0.512-11.008,1.376-16.576,1.632H80.016c-8.832,0-16,7.168-16,16v16h-48    c-8.832,0-16,7.168-16,16v96c0,8.832,7.168,16,16,16h48v16c0,8.832,7.168,16,16,16h9.696l64.32,171.456    c3.936,10.272,12.736,17.728,23.552,19.904c2.144,0.448,4.288,0.672,6.4,0.672c8.544,0,16.672-3.392,22.496-9.472l38.432-38.112    c9.824-9.824,12.16-25.152,5.888-37.024L197.104,320H239.6C245.104,320.256,250.544,321.12,256.016,321.632z" data-original="#000000" class="active-path" data-old_color="#000000" fill="#626060"/>
	</g>
</g><g>
	<g>
		<path d="M509.392,7.744c-0.32-0.544-0.608-0.992-1.024-1.504c-1.76-2.24-3.968-4.064-6.688-5.12    c-0.096-0.032-0.16-0.16-0.256-0.192c-0.32-0.096-0.608,0.064-0.928-0.032C499.056,0.48,497.616,0,496.016,0    c-1.088,0-2.048,0.416-3.104,0.64c-0.608,0.128-1.184,0.16-1.792,0.352c-2.752,0.896-5.12,2.432-7.008,4.544    c-0.128,0.128-0.32,0.16-0.448,0.288C433.776,66.4,364.208,106.912,288.016,121.76v204.512    c76.192,14.848,145.76,55.328,195.648,115.904c0.128,0.16,0.352,0.224,0.512,0.416c1.12,1.248,2.496,2.24,3.968,3.072    c0.48,0.288,0.864,0.704,1.344,0.928c2.016,0.864,4.192,1.408,6.528,1.408c1.824,0,3.616-0.32,5.408-0.928    c0.096-0.032,0.16-0.16,0.256-0.192c2.72-1.056,4.928-2.848,6.688-5.12c0.384-0.512,0.672-0.96,1.024-1.504    c1.536-2.464,2.624-5.184,2.624-8.256V16C512.016,12.928,510.928,10.208,509.392,7.744z" data-original="#000000" class="active-path" data-old_color="#000000" fill="#626060"/>
	</g>
</g></g> </svg>
