<svg width="20" height="14" viewBox="0 0 20 14" fill="none" xmlns="http://www.w3.org/2000/svg">
    <path fill-rule="evenodd" clip-rule="evenodd"
          d="M9.09889 0.652381C11.9559 0.246076 14.7326 1.79691 15.8851 4.4425C18.062 5.09412 19.4328 7.24242 19.1067 9.49126C18.7805 11.7401 16.8558 13.4104 14.5834 13.4167H4.50008C2.63988 13.4206 1.07151 12.0309 0.851443 10.1838C0.631378 8.33664 1.82936 6.6174 3.63842 6.18417C4.00762 3.32217 6.24192 1.05869 9.09889 0.652381ZM4.50007 11.5833H14.5834C15.999 11.5671 17.171 10.4789 17.2919 9.06837C17.4128 7.65787 16.4431 6.38605 15.0509 6.12917C14.7198 6.07367 14.4454 5.84156 14.3359 5.52417C13.6102 3.40627 11.4606 2.12257 9.25184 2.48805C7.04308 2.85353 5.42157 4.76121 5.41674 7C5.41674 7.50626 5.00633 7.91667 4.50007 7.91667C3.48755 7.91667 2.66674 8.73748 2.66674 9.75C2.66674 10.7625 3.48755 11.5833 4.50007 11.5833Z"
          fill="#a73866"/>
</svg>
